ply
format ascii 1.0
comment Created by Blender 2.69 (sub 0) - www.blender.org, source file: ''
element vertex 4
property float x
property float y
property float z
property float nx
property float ny
property float nz
property uchar red
property uchar green
property uchar blue
element face 2
property list uchar uint vertex_indices
end_header
6.411634 -6.407824 -0.042360 -1.000000 0.000000 -0.000000 254 254 254
6.411634 -6.407825 2.629259 -1.000000 0.000000 -0.000000 254 254 254
6.411634 -0.997676 2.629260 -1.000000 0.000000 -0.000000 254 254 254
6.411634 -0.997675 -0.042360 -1.000000 -0.000000 0.000000 254 254 254
3 0 1 2
3 0 2 3
