800 600 1 2097152 0.7 2 0 500 0 2 610 1 scenes/psor-cube/psor-cube.scn image.tiff 0
Engine|PPMPA
Reading scene: scenes/psor-cube/psor-cube.scn
Total triangle count|33796
Total QBVH memory usage: 566Kbytes
CPU AS|PARALLEL_HASHGRID of 480000 buckets
Device configuration|CPU0
Device 100 is building hitpoints...
Device 100: Iteration    1 radius: 0.14893460
Device 100: Iteration    2 radius: 0.12659441
Device 100: Iteration    3 radius: 0.11393498
Device 100: Iteration    4 radius: 0.10538986
Device 100: Iteration    5 radius: 0.09906646
Device 100: Iteration    6 radius: 0.09411313
Device 100: Iteration    7 radius: 0.09007972
Device 100: Iteration    8 radius: 0.08670174
Device 100: Iteration    9 radius: 0.08381168
Device 100: Iteration   10 radius: 0.08129732
Device 100: Iteration   11 radius: 0.07908011
Device 100: Iteration   12 radius: 0.07710311
Device 100: Iteration   13 radius: 0.07532381
Device 100: Iteration   14 radius: 0.07370972
Device 100: Iteration   15 radius: 0.07223552
Device 100: Iteration   16 radius: 0.07088111
Device 100: Iteration   17 radius: 0.06963027
Device 100: Iteration   18 radius: 0.06846977
Device 100: Iteration   19 radius: 0.06738867
Device 100: Iteration   20 radius: 0.06637784
Device 100: Iteration   21 radius: 0.06542959
Device 100: Iteration   22 radius: 0.06453738
Device 100: Iteration   23 radius: 0.06369559
Device 100: Iteration   24 radius: 0.06289940
Device 100: Iteration   25 radius: 0.06214460
Device 100: Iteration   26 radius: 0.06142755
Device 100: Iteration   27 radius: 0.06074502
Device 100: Iteration   28 radius: 0.06009419
Device 100: Iteration   29 radius: 0.05947252
Device 100: Iteration   30 radius: 0.05887780
Device 100: Iteration   31 radius: 0.05830801
Device 100: Iteration   32 radius: 0.05776137
Device 100: Iteration   33 radius: 0.05723627
Device 100: Iteration   34 radius: 0.05673125
Device 100: Iteration   35 radius: 0.05624498
Device 100: Iteration   36 radius: 0.05577627
Device 100: Iteration   37 radius: 0.05532403
Device 100: Iteration   38 radius: 0.05488727
Device 100: Iteration   39 radius: 0.05446506
Device 100: Iteration   40 radius: 0.05405657
Device 100: Iteration   41 radius: 0.05366104
Device 100: Iteration   42 radius: 0.05327775
Device 100: Iteration   43 radius: 0.05290604
Device 100: Iteration   44 radius: 0.05254532
Device 100: Iteration   45 radius: 0.05219502
Device 100: Iteration   46 radius: 0.05185461
Device 100: Iteration   47 radius: 0.05152363
Device 100: Iteration   48 radius: 0.05120161
Device 100: Iteration   49 radius: 0.05088813
Device 100: Iteration   50 radius: 0.05058280
Device 100: Iteration   51 radius: 0.05028526
Device 100: Iteration   52 radius: 0.04999515
Device 100: Iteration   53 radius: 0.04971216
Device 100: Iteration   54 radius: 0.04943598
Device 100: Iteration   55 radius: 0.04916633
Device 100: Iteration   56 radius: 0.04890294
Device 100: Iteration   57 radius: 0.04864556
Device 100: Iteration   58 radius: 0.04839394
Device 100: Iteration   59 radius: 0.04814787
Device 100: Iteration   60 radius: 0.04790714
Device 100: Iteration   61 radius: 0.04767153
Device 100: Iteration   62 radius: 0.04744086
Device 100: Iteration   63 radius: 0.04721496
Device 100: Iteration   64 radius: 0.04699363
Device 100: Iteration   65 radius: 0.04677674
Device 100: Iteration   66 radius: 0.04656411
Device 100: Iteration   67 radius: 0.04635561
Device 100: Iteration   68 radius: 0.04615110
Device 100: Iteration   69 radius: 0.04595044
Device 100: Iteration   70 radius: 0.04575351
Device 100: Iteration   71 radius: 0.04556018
Device 100: Iteration   72 radius: 0.04537034
Device 100: Iteration   73 radius: 0.04518389
Device 100: Iteration   74 radius: 0.04500071
Device 100: Iteration   75 radius: 0.04482070
Device 100: Iteration   76 radius: 0.04464378
Device 100: Iteration   77 radius: 0.04446984
Device 100: Iteration   78 radius: 0.04429880
Device 100: Iteration   79 radius: 0.04413058
Device 100: Iteration   80 radius: 0.04396509
Device 100: Iteration   81 radius: 0.04380225
Device 100: Iteration   82 radius: 0.04364200
Device 100: Iteration   83 radius: 0.04348425
Device 100: Iteration   84 radius: 0.04332896
Device 100: Iteration   85 radius: 0.04317603
Device 100: Iteration   86 radius: 0.04302541
Device 100: Iteration   87 radius: 0.04287704
Device 100: Iteration   88 radius: 0.04273087
Device 100: Iteration   89 radius: 0.04258683
Device 100: Iteration   90 radius: 0.04244487
Device 100: Iteration   91 radius: 0.04230494
Device 100: Iteration   92 radius: 0.04216699
Device 100: Iteration   93 radius: 0.04203097
Device 100: Iteration   94 radius: 0.04189682
Device 100: Iteration   95 radius: 0.04176452
Device 100: Iteration   96 radius: 0.04163400
Device 100: Iteration   97 radius: 0.04150524
Device 100: Iteration   98 radius: 0.04137818
Device 100: Iteration   99 radius: 0.04125279
Device 100: Iteration  100 radius: 0.04112903
Device 100: Iteration  101 radius: 0.04100687
Device 100: Iteration  102 radius: 0.04088626
Device 100: Iteration  103 radius: 0.04076717
Device 100: Iteration  104 radius: 0.04064958
Device 100: Iteration  105 radius: 0.04053343
Device 100: Iteration  106 radius: 0.04041872
Device 100: Iteration  107 radius: 0.04030539
Device 100: Iteration  108 radius: 0.04019343
Device 100: Iteration  109 radius: 0.04008281
Device 100: Iteration  110 radius: 0.03997349
Device 100: Iteration  111 radius: 0.03986546
Device 100: Iteration  112 radius: 0.03975867
Device 100: Iteration  113 radius: 0.03965312
Device 100: Iteration  114 radius: 0.03954877
Device 100: Iteration  115 radius: 0.03944560
Device 100: Iteration  116 radius: 0.03934359
Device 100: Iteration  117 radius: 0.03924271
Device 100: Iteration  118 radius: 0.03914294
Device 100: Iteration  119 radius: 0.03904426
Device 100: Iteration  120 radius: 0.03894665
Device 100: Iteration  121 radius: 0.03885008
Device 100: Iteration  122 radius: 0.03875455
Device 100: Iteration  123 radius: 0.03866002
Device 100: Iteration  124 radius: 0.03856649
Device 100: Iteration  125 radius: 0.03847393
Device 100: Iteration  126 radius: 0.03838233
Device 100: Iteration  127 radius: 0.03829165
Device 100: Iteration  128 radius: 0.03820191
Device 100: Iteration  129 radius: 0.03811306
Device 100: Iteration  130 radius: 0.03802511
Device 100: Iteration  131 radius: 0.03793802
Device 100: Iteration  132 radius: 0.03785180
Device 100: Iteration  133 radius: 0.03776642
Device 100: Iteration  134 radius: 0.03768187
Device 100: Iteration  135 radius: 0.03759812
Device 100: Iteration  136 radius: 0.03751519
Device 100: Iteration  137 radius: 0.03743303
Device 100: Iteration  138 radius: 0.03735165
Device 100: Iteration  139 radius: 0.03727104
Device 100: Iteration  140 radius: 0.03719117
Device 100: Iteration  141 radius: 0.03711204
Device 100: Iteration  142 radius: 0.03703363
Device 100: Iteration  143 radius: 0.03695594
Device 100: Iteration  144 radius: 0.03687894
Device 100: Iteration  145 radius: 0.03680264
Device 100: Iteration  146 radius: 0.03672702
Device 100: Iteration  147 radius: 0.03665207
Device 100: Iteration  148 radius: 0.03657778
Device 100: Iteration  149 radius: 0.03650413
Device 100: Iteration  150 radius: 0.03643112
Device 100: Iteration  151 radius: 0.03635874
Device 100: Iteration  152 radius: 0.03628698
Device 100: Iteration  153 radius: 0.03621583
Device 100: Iteration  154 radius: 0.03614528
Device 100: Iteration  155 radius: 0.03607532
Device 100: Iteration  156 radius: 0.03600594
Device 100: Iteration  157 radius: 0.03593714
Device 100: Iteration  158 radius: 0.03586890
Device 100: Iteration  159 radius: 0.03580123
Device 100: Iteration  160 radius: 0.03573410
Device 100: Iteration  161 radius: 0.03566751
Device 100: Iteration  162 radius: 0.03560146
Device 100: Iteration  163 radius: 0.03553593
Device 100: Iteration  164 radius: 0.03547093
Device 100: Iteration  165 radius: 0.03540644
Device 100: Iteration  166 radius: 0.03534245
Device 100: Iteration  167 radius: 0.03527895
Device 100: Iteration  168 radius: 0.03521596
Device 100: Iteration  169 radius: 0.03515344
Device 100: Iteration  170 radius: 0.03509141
Device 100: Iteration  171 radius: 0.03502984
Device 100: Iteration  172 radius: 0.03496874
Device 100: Iteration  173 radius: 0.03490810
Device 100: Iteration  174 radius: 0.03484792
Device 100: Iteration  175 radius: 0.03478817
Device 100: Iteration  176 radius: 0.03472887
Device 100: Iteration  177 radius: 0.03467001
Device 100: Iteration  178 radius: 0.03461158
Device 100: Iteration  179 radius: 0.03455357
Device 100: Iteration  180 radius: 0.03449598
Device 100: Iteration  181 radius: 0.03443880
Device 100: Iteration  182 radius: 0.03438204
Device 100: Iteration  183 radius: 0.03432567
Device 100: Iteration  184 radius: 0.03426971
Device 100: Iteration  185 radius: 0.03421413
Device 100: Iteration  186 radius: 0.03415895
Device 100: Iteration  187 radius: 0.03410415
Device 100: Iteration  188 radius: 0.03404973
Device 100: Iteration  189 radius: 0.03399568
Device 100: Iteration  190 radius: 0.03394200
Device 100: Iteration  191 radius: 0.03388869
Device 100: Iteration  192 radius: 0.03383574
Device 100: Iteration  193 radius: 0.03378314
Device 100: Iteration  194 radius: 0.03373089
Device 100: Iteration  195 radius: 0.03367900
Device 100: Iteration  196 radius: 0.03362745
Device 100: Iteration  197 radius: 0.03357624
Device 100: Iteration  198 radius: 0.03352537
Device 100: Iteration  199 radius: 0.03347483
Device 100: Iteration  200 radius: 0.03342462
Device 100: Iteration  201 radius: 0.03337473
Device 100: Iteration  202 radius: 0.03332517
Device 100: Iteration  203 radius: 0.03327591
Device 100: Iteration  204 radius: 0.03322698
Device 100: Iteration  205 radius: 0.03317835
Device 100: Iteration  206 radius: 0.03313004
Device 100: Iteration  207 radius: 0.03308202
Device 100: Iteration  208 radius: 0.03303431
Device 100: Iteration  209 radius: 0.03298689
Device 100: Iteration  210 radius: 0.03293977
Device 100: Iteration  211 radius: 0.03289293
Device 100: Iteration  212 radius: 0.03284638
Device 100: Iteration  213 radius: 0.03280012
Device 100: Iteration  214 radius: 0.03275413
Device 100: Iteration  215 radius: 0.03270843
Device 100: Iteration  216 radius: 0.03266300
Device 100: Iteration  217 radius: 0.03261784
Device 100: Iteration  218 radius: 0.03257295
Device 100: Iteration  219 radius: 0.03252834
Device 100: Iteration  220 radius: 0.03248398
Device 100: Iteration  221 radius: 0.03243988
Device 100: Iteration  222 radius: 0.03239604
Device 100: Iteration  223 radius: 0.03235246
Device 100: Iteration  224 radius: 0.03230913
Device 100: Iteration  225 radius: 0.03226605
Device 100: Iteration  226 radius: 0.03222322
Device 100: Iteration  227 radius: 0.03218063
Device 100: Iteration  228 radius: 0.03213828
Device 100: Iteration  229 radius: 0.03209618
Device 100: Iteration  230 radius: 0.03205431
Device 100: Iteration  231 radius: 0.03201269
Device 100: Iteration  232 radius: 0.03197129
Device 100: Iteration  233 radius: 0.03193012
Device 100: Iteration  234 radius: 0.03188919
Device 100: Iteration  235 radius: 0.03184848
Device 100: Iteration  236 radius: 0.03180799
Device 100: Iteration  237 radius: 0.03176773
Device 100: Iteration  238 radius: 0.03172768
Device 100: Iteration  239 radius: 0.03168786
Device 100: Iteration  240 radius: 0.03164824
Device 100: Iteration  241 radius: 0.03160885
Device 100: Iteration  242 radius: 0.03156966
Device 100: Iteration  243 radius: 0.03153069
Device 100: Iteration  244 radius: 0.03149192
Device 100: Iteration  245 radius: 0.03145336
Device 100: Iteration  246 radius: 0.03141500
Device 100: Iteration  247 radius: 0.03137684
Device 100: Iteration  248 radius: 0.03133889
Device 100: Iteration  249 radius: 0.03130113
Device 100: Iteration  250 radius: 0.03126356
Device 100: Iteration  251 radius: 0.03122620
Device 100: Iteration  252 radius: 0.03118902
Device 100: Iteration  253 radius: 0.03115204
Device 100: Iteration  254 radius: 0.03111524
Device 100: Iteration  255 radius: 0.03107863
Device 100: Iteration  256 radius: 0.03104221
Device 100: Iteration  257 radius: 0.03100598
Device 100: Iteration  258 radius: 0.03096993
Device 100: Iteration  259 radius: 0.03093405
Device 100: Iteration  260 radius: 0.03089836
Device 100: Iteration  261 radius: 0.03086285
Device 100: Iteration  262 radius: 0.03082751
Device 100: Iteration  263 radius: 0.03079235
Device 100: Iteration  264 radius: 0.03075736
Device 100: Iteration  265 radius: 0.03072254
Device 100: Iteration  266 radius: 0.03068789
Device 100: Iteration  267 radius: 0.03065341
Device 100: Iteration  268 radius: 0.03061910
Device 100: Iteration  269 radius: 0.03058495
Device 100: Iteration  270 radius: 0.03055097
Device 100: Iteration  271 radius: 0.03051715
Device 100: Iteration  272 radius: 0.03048349
Device 100: Iteration  273 radius: 0.03045000
Device 100: Iteration  274 radius: 0.03041666
Device 100: Iteration  275 radius: 0.03038348
Device 100: Iteration  276 radius: 0.03035045
Device 100: Iteration  277 radius: 0.03031758
Device 100: Iteration  278 radius: 0.03028487
Device 100: Iteration  279 radius: 0.03025231
Device 100: Iteration  280 radius: 0.03021990
Device 100: Iteration  281 radius: 0.03018763
Device 100: Iteration  282 radius: 0.03015552
Device 100: Iteration  283 radius: 0.03012355
Device 100: Iteration  284 radius: 0.03009173
Device 100: Iteration  285 radius: 0.03006006
Device 100: Iteration  286 radius: 0.03002853
Device 100: Iteration  287 radius: 0.02999714
Device 100: Iteration  288 radius: 0.02996590
Device 100: Iteration  289 radius: 0.02993479
Device 100: Iteration  290 radius: 0.02990383
Device 100: Iteration  291 radius: 0.02987300
Device 100: Iteration  292 radius: 0.02984231
Device 100: Iteration  293 radius: 0.02981175
Device 100: Iteration  294 radius: 0.02978133
Device 100: Iteration  295 radius: 0.02975105
Device 100: Iteration  296 radius: 0.02972090
Device 100: Iteration  297 radius: 0.02969088
Device 100: Iteration  298 radius: 0.02966099
Device 100: Iteration  299 radius: 0.02963123
Device 100: Iteration  300 radius: 0.02960160
Device 100: Iteration  301 radius: 0.02957210
Device 100: Iteration  302 radius: 0.02954272
Device 100: Iteration  303 radius: 0.02951347
Device 100: Iteration  304 radius: 0.02948435
Device 100: Iteration  305 radius: 0.02945535
Device 100: Iteration  306 radius: 0.02942647
Device 100: Iteration  307 radius: 0.02939772
Device 100: Iteration  308 radius: 0.02936908
Device 100: Iteration  309 radius: 0.02934057
Device 100: Iteration  310 radius: 0.02931218
Device 100: Iteration  311 radius: 0.02928390
Device 100: Iteration  312 radius: 0.02925575
Device 100: Iteration  313 radius: 0.02922770
Device 100: Iteration  314 radius: 0.02919978
Device 100: Iteration  315 radius: 0.02917197
Device 100: Iteration  316 radius: 0.02914428
Device 100: Iteration  317 radius: 0.02911670
Device 100: Iteration  318 radius: 0.02908923
Device 100: Iteration  319 radius: 0.02906188
Device 100: Iteration  320 radius: 0.02903464
Device 100: Iteration  321 radius: 0.02900750
Device 100: Iteration  322 radius: 0.02898048
Device 100: Iteration  323 radius: 0.02895356
Device 100: Iteration  324 radius: 0.02892675
Device 100: Iteration  325 radius: 0.02890005
Device 100: Iteration  326 radius: 0.02887345
Device 100: Iteration  327 radius: 0.02884697
Device 100: Iteration  328 radius: 0.02882059
Device 100: Iteration  329 radius: 0.02879431
Device 100: Iteration  330 radius: 0.02876813
Device 100: Iteration  331 radius: 0.02874206
Device 100: Iteration  332 radius: 0.02871609
Device 100: Iteration  333 radius: 0.02869022
Device 100: Iteration  334 radius: 0.02866445
Device 100: Iteration  335 radius: 0.02863878
Device 100: Iteration  336 radius: 0.02861322
Device 100: Iteration  337 radius: 0.02858775
Device 100: Iteration  338 radius: 0.02856238
Device 100: Iteration  339 radius: 0.02853710
Device 100: Iteration  340 radius: 0.02851192
Device 100: Iteration  341 radius: 0.02848684
Device 100: Iteration  342 radius: 0.02846185
Device 100: Iteration  343 radius: 0.02843696
Device 100: Iteration  344 radius: 0.02841216
Device 100: Iteration  345 radius: 0.02838745
Device 100: Iteration  346 radius: 0.02836284
Device 100: Iteration  347 radius: 0.02833832
Device 100: Iteration  348 radius: 0.02831390
Device 100: Iteration  349 radius: 0.02828956
Device 100: Iteration  350 radius: 0.02826531
Device 100: Iteration  351 radius: 0.02824116
Device 100: Iteration  352 radius: 0.02821709
Device 100: Iteration  353 radius: 0.02819311
Device 100: Iteration  354 radius: 0.02816922
Device 100: Iteration  355 radius: 0.02814541
Device 100: Iteration  356 radius: 0.02812170
Device 100: Iteration  357 radius: 0.02809807
Device 100: Iteration  358 radius: 0.02807452
Device 100: Iteration  359 radius: 0.02805107
Device 100: Iteration  360 radius: 0.02802769
Device 100: Iteration  361 radius: 0.02800440
Device 100: Iteration  362 radius: 0.02798119
Device 100: Iteration  363 radius: 0.02795807
Device 100: Iteration  364 radius: 0.02793502
Device 100: Iteration  365 radius: 0.02791206
Device 100: Iteration  366 radius: 0.02788918
Device 100: Iteration  367 radius: 0.02786639
Device 100: Iteration  368 radius: 0.02784367
Device 100: Iteration  369 radius: 0.02782103
Device 100: Iteration  370 radius: 0.02779848
Device 100: Iteration  371 radius: 0.02777600
Device 100: Iteration  372 radius: 0.02775360
Device 100: Iteration  373 radius: 0.02773128
Device 100: Iteration  374 radius: 0.02770904
Device 100: Iteration  375 radius: 0.02768687
Device 100: Iteration  376 radius: 0.02766478
Device 100: Iteration  377 radius: 0.02764277
Device 100: Iteration  378 radius: 0.02762083
Device 100: Iteration  379 radius: 0.02759897
Device 100: Iteration  380 radius: 0.02757718
Device 100: Iteration  381 radius: 0.02755547
Device 100: Iteration  382 radius: 0.02753383
Device 100: Iteration  383 radius: 0.02751226
Device 100: Iteration  384 radius: 0.02749077
Device 100: Iteration  385 radius: 0.02746935
Device 100: Iteration  386 radius: 0.02744800
Device 100: Iteration  387 radius: 0.02742672
Device 100: Iteration  388 radius: 0.02740552
Device 100: Iteration  389 radius: 0.02738438
Device 100: Iteration  390 radius: 0.02736332
Device 100: Iteration  391 radius: 0.02734232
Device 100: Iteration  392 radius: 0.02732140
Device 100: Iteration  393 radius: 0.02730054
Device 100: Iteration  394 radius: 0.02727976
Device 100: Iteration  395 radius: 0.02725904
Device 100: Iteration  396 radius: 0.02723839
Device 100: Iteration  397 radius: 0.02721781
Device 100: Iteration  398 radius: 0.02719729
Device 100: Iteration  399 radius: 0.02717684
Device 100: Iteration  400 radius: 0.02715646
Device 100: Iteration  401 radius: 0.02713615
Device 100: Iteration  402 radius: 0.02711590
Device 100: Iteration  403 radius: 0.02709571
Device 100: Iteration  404 radius: 0.02707559
Device 100: Iteration  405 radius: 0.02705554
Device 100: Iteration  406 radius: 0.02703555
Device 100: Iteration  407 radius: 0.02701562
Device 100: Iteration  408 radius: 0.02699575
Device 100: Iteration  409 radius: 0.02697595
Device 100: Iteration  410 radius: 0.02695621
Device 100: Iteration  411 radius: 0.02693654
Device 100: Iteration  412 radius: 0.02691692
Device 100: Iteration  413 radius: 0.02689737
Device 100: Iteration  414 radius: 0.02687788
Device 100: Iteration  415 radius: 0.02685845
Device 100: Iteration  416 radius: 0.02683908
Device 100: Iteration  417 radius: 0.02681978
Device 100: Iteration  418 radius: 0.02680053
Device 100: Iteration  419 radius: 0.02678134
Device 100: Iteration  420 radius: 0.02676222
Device 100: Iteration  421 radius: 0.02674314
Device 100: Iteration  422 radius: 0.02672413
Device 100: Iteration  423 radius: 0.02670518
Device 100: Iteration  424 radius: 0.02668629
Device 100: Iteration  425 radius: 0.02666745
Device 100: Iteration  426 radius: 0.02664867
Device 100: Iteration  427 radius: 0.02662995
Device 100: Iteration  428 radius: 0.02661128
Device 100: Iteration  429 radius: 0.02659267
Device 100: Iteration  430 radius: 0.02657412
Device 100: Iteration  431 radius: 0.02655563
Device 100: Iteration  432 radius: 0.02653718
Device 100: Iteration  433 radius: 0.02651880
Device 100: Iteration  434 radius: 0.02650047
Device 100: Iteration  435 radius: 0.02648219
Device 100: Iteration  436 radius: 0.02646397
Device 100: Iteration  437 radius: 0.02644580
Device 100: Iteration  438 radius: 0.02642769
Device 100: Iteration  439 radius: 0.02640963
Device 100: Iteration  440 radius: 0.02639162
Device 100: Iteration  441 radius: 0.02637367
Device 100: Iteration  442 radius: 0.02635577
Device 100: Iteration  443 radius: 0.02633792
Device 100: Iteration  444 radius: 0.02632012
Device 100: Iteration  445 radius: 0.02630238
Device 100: Iteration  446 radius: 0.02628469
Device 100: Iteration  447 radius: 0.02626705
Device 100: Iteration  448 radius: 0.02624946
Device 100: Iteration  449 radius: 0.02623192
Device 100: Iteration  450 radius: 0.02621444
Device 100: Iteration  451 radius: 0.02619700
Device 100: Iteration  452 radius: 0.02617961
Device 100: Iteration  453 radius: 0.02616227
Device 100: Iteration  454 radius: 0.02614499
Device 100: Iteration  455 radius: 0.02612775
Device 100: Iteration  456 radius: 0.02611056
Device 100: Iteration  457 radius: 0.02609342
Device 100: Iteration  458 radius: 0.02607633
Device 100: Iteration  459 radius: 0.02605929
Device 100: Iteration  460 radius: 0.02604229
Device 100: Iteration  461 radius: 0.02602535
Device 100: Iteration  462 radius: 0.02600845
Device 100: Iteration  463 radius: 0.02599159
Device 100: Iteration  464 radius: 0.02597479
Device 100: Iteration  465 radius: 0.02595803
Device 100: Iteration  466 radius: 0.02594132
Device 100: Iteration  467 radius: 0.02592465
Device 100: Iteration  468 radius: 0.02590804
Device 100: Iteration  469 radius: 0.02589146
Device 100: Iteration  470 radius: 0.02587494
Device 100: Iteration  471 radius: 0.02585846
Device 100: Iteration  472 radius: 0.02584202
Device 100: Iteration  473 radius: 0.02582563
Device 100: Iteration  474 radius: 0.02580929
Device 100: Iteration  475 radius: 0.02579299
Device 100: Iteration  476 radius: 0.02577673
Device 100: Iteration  477 radius: 0.02576052
Device 100: Iteration  478 radius: 0.02574435
Device 100: Iteration  479 radius: 0.02572823
Device 100: Iteration  480 radius: 0.02571215
Device 100: Iteration  481 radius: 0.02569612
Device 100: Iteration  482 radius: 0.02568012
Device 100: Iteration  483 radius: 0.02566417
Device 100: Iteration  484 radius: 0.02564827
Device 100: Iteration  485 radius: 0.02563240
Device 100: Iteration  486 radius: 0.02561658
Device 100: Iteration  487 radius: 0.02560080
Device 100: Iteration  488 radius: 0.02558506
Device 100: Iteration  489 radius: 0.02556937
Device 100: Iteration  490 radius: 0.02555371
Device 100: Iteration  491 radius: 0.02553810
Device 100: Iteration  492 radius: 0.02552253
Device 100: Iteration  493 radius: 0.02550700
Device 100: Iteration  494 radius: 0.02549151
Device 100: Iteration  495 radius: 0.02547606
Device 100: Iteration  496 radius: 0.02546066
Device 100: Iteration  497 radius: 0.02544529
Device 100: Iteration  498 radius: 0.02542996
Device 100: Iteration  499 radius: 0.02541467
Device 100: Iteration  500 radius: 0.02539942
Worker 100 finished


Device 100|PM MPhotons/sec|9.80495
Device 100|PM MRays/sec|12.9849
Device 100|PT MEyeSamples/sec|2.43769
Device 100|PT MRays/sec|2.92408
Device 100|iterations/sec|4.16432
All sampleBuffer processed!

System|execution time|120.503
System|MPhotons/sec|8.702
System|iteration/sec|4.166
Total photons: 1048.58M


=====================================================================================
Walltime                                                                    | 120.737 |
Total Job                                                                   | 120.503 |
Process Iterations                                                          | 120.493 |
Build Hit Points                                                            | 0.200 |
Update BBox                                                                 | 0.010 |
Process Iterations > Iterations                                             | 120.067 |
Process Iterations > Initialize radius                                      | 0.001 |
Process Iterations > Iterations > Update lookup                             | 0.020 |
Process Iterations > Iterations > Build Photon Map                          | 106.948 |
Process Iterations > Iterations > Build Photon Map > Trace                  | NA |
Process Iterations > Iterations > Build Photon Map > Sort pho hits          | NA |
Process Iterations > Iterations > Build Photon Map > Sort pho hits > bb     | NA |
Process Iterations > Iterations > Build Photon Map > Sort pho hits > sort   | NA |
Process Iterations > Iterations > Build Photon Map > Sort pho hits > move   | NA |
Process Iterations > Iterations > Build Photon Map > Search                 | NA |
Process Iterations > Iterations > Radiance calc                             | 4.691 |
Process Iterations > Iterations > Update Samples                            | 8.388 |
Process Iterations > Iterations > Update Samples > HP to sample             | 3.939 |
Process Iterations > Iterations > Update Samples > Copy samples RGB         | 0.000 |
Process Iterations > Iterations > Update Samples > Splat to pixel           | 3.849 |
=====================================================================================
GRACEFUL_EXIT
