800 600 1 2097152 0.7 3 1 500 0 2 620 1 scenes/kitchen-simpler/kitchen.scn image.tiff 0
Engine|SPPMPA
Reading scene: scenes/kitchen-simpler/kitchen.scn
Total triangle count|86016
Total QBVH memory usage: 1494Kbytes
CPU AS|PARALLEL_HASHGRID of 480000 buckets
CPU AS|PARALLEL_HASHGRID of 480000 buckets
Device configuration|CPU0 + CPU1
Device 101: Iteration    2 radius: 0.00012647
Device 100: Iteration    1 radius: 0.00015045
Device 101: Iteration    3 radius: 0.00011509
Device 100: Iteration    4 radius: 0.00010530
Device 101: Iteration    5 radius: 0.00010370
Device 100: Iteration    6 radius: 0.00010180
Device 101: Iteration    7 radius: 0.00008987
Device 100: Iteration    8 radius: 0.00008758
Device 101: Iteration    9 radius: 0.00008373
Device 101: Iteration   10 radius: 0.00008122
Device 100: Iteration   11 radius: 0.00007902
Device 101: Iteration   12 radius: 0.00007702
Device 100: Iteration   13 radius: 0.00007525
Device 101: Iteration   14 radius: 0.00007366
Device 100: Iteration   15 radius: 0.00007218
Device 101: Iteration   16 radius: 0.00007084
Device 100: Iteration   17 radius: 0.00006958
Device 101: Iteration   18 radius: 0.00006833
Device 101: Iteration   19 radius: 0.00006726
Device 100: Iteration   20 radius: 0.00006632
Device 101: Iteration   21 radius: 0.00006537
Device 100: Iteration   22 radius: 0.00006517
Device 101: Iteration   23 radius: 0.00006363
Device 100: Iteration   24 radius: 0.00006285
Device 101: Iteration   25 radius: 0.00006210
Device 100: Iteration   26 radius: 0.00006430
Device 101: Iteration   27 radius: 0.00006071
Device 100: Iteration   28 radius: 0.00006070
Device 101: Iteration   29 radius: 0.00005943
Device 101: Iteration   30 radius: 0.00005944
Device 100: Iteration   31 radius: 0.00005890
Device 101: Iteration   32 radius: 0.00005835
Device 100: Iteration   33 radius: 0.00005715
Device 101: Iteration   34 radius: 0.00005666
Device 100: Iteration   35 radius: 0.00005620
Device 101: Iteration   36 radius: 0.00005572
Device 100: Iteration   37 radius: 0.00005668
Device 101: Iteration   38 radius: 0.00005482
Device 100: Iteration   39 radius: 0.00005503
Device 101: Iteration   40 radius: 0.00005401
Device 101: Iteration   41 radius: 0.00005361
Device 100: Iteration   42 radius: 0.00005320
Device 101: Iteration   43 radius: 0.00005535
Device 100: Iteration   44 radius: 0.00005250
Device 101: Iteration   45 radius: 0.00005214
Device 100: Iteration   46 radius: 0.00005181
Device 101: Iteration   47 radius: 0.00005390
Device 100: Iteration   48 radius: 0.00005114
Device 101: Iteration   49 radius: 0.00005085
Device 100: Iteration   50 radius: 0.00005294
Device 101: Iteration   51 radius: 0.00005437
Device 100: Iteration   52 radius: 0.00004996
Device 101: Iteration   53 radius: 0.00005021
Device 100: Iteration   54 radius: 0.00004939
Device 101: Iteration   55 radius: 0.00005146
Device 100: Iteration   56 radius: 0.00004938
Device 101: Iteration   57 radius: 0.00004860
Device 101: Iteration   58 radius: 0.00004889
Device 100: Iteration   59 radius: 0.00004864
Device 101: Iteration   60 radius: 0.00005066
Device 100: Iteration   61 radius: 0.00004763
Device 101: Iteration   62 radius: 0.00004737
Device 100: Iteration   63 radius: 0.00004768
Device 101: Iteration   64 radius: 0.00004694
Device 100: Iteration   65 radius: 0.00004673
Device 101: Iteration   66 radius: 0.00004653
Device 100: Iteration   67 radius: 0.00004683
Device 101: Iteration   68 radius: 0.00004662
Device 100: Iteration   69 radius: 0.00004588
Device 101: Iteration   70 radius: 0.00004572
Device 100: Iteration   71 radius: 0.00004551
Device 101: Iteration   72 radius: 0.00004534
Device 100: Iteration   73 radius: 0.00004512
Device 101: Iteration   74 radius: 0.00004710
Device 100: Iteration   75 radius: 0.00004528
Device 101: Iteration   76 radius: 0.00004457
Device 101: Iteration   77 radius: 0.00004491
Device 100: Iteration   78 radius: 0.00004427
Device 101: Iteration   79 radius: 0.00004408
Device 100: Iteration   80 radius: 0.00004552
Device 101: Iteration   81 radius: 0.00004375
Device 100: Iteration   82 radius: 0.00004360
Device 101: Iteration   83 radius: 0.00004346
Device 100: Iteration   84 radius: 0.00004329
Device 101: Iteration   85 radius: 0.00004518
Device 100: Iteration   86 radius: 0.00004300
Device 101: Iteration   87 radius: 0.00004283
Device 100: Iteration   88 radius: 0.00004269
Device 101: Iteration   89 radius: 0.00004253
Device 100: Iteration   90 radius: 0.00004515
Device 101: Iteration   91 radius: 0.00004228
Device 100: Iteration   92 radius: 0.00004438
Device 101: Iteration   93 radius: 0.00004199
Device 100: Iteration   94 radius: 0.00004233
Device 101: Iteration   95 radius: 0.00004173
Device 100: Iteration   96 radius: 0.00004357
Device 101: Iteration   97 radius: 0.00004193
Device 100: Iteration   98 radius: 0.00004181
Device 101: Iteration   99 radius: 0.00004167
Device 100: Iteration  100 radius: 0.00004106
Device 101: Iteration  101 radius: 0.00004142
Device 100: Iteration  102 radius: 0.00004084
Device 101: Iteration  103 radius: 0.00004072
Device 100: Iteration  104 radius: 0.00004106
Device 101: Iteration  105 radius: 0.00004050
Device 100: Iteration  106 radius: 0.00004037
Device 101: Iteration  107 radius: 0.00004071
Device 100: Iteration  108 radius: 0.00004014
Device 101: Iteration  109 radius: 0.00004005
Device 100: Iteration  110 radius: 0.00004182
Device 101: Iteration  111 radius: 0.00003983
Device 100: Iteration  112 radius: 0.00004160
Device 101: Iteration  113 radius: 0.00003962
Device 100: Iteration  114 radius: 0.00003952
Device 101: Iteration  115 radius: 0.00003941
Device 100: Iteration  116 radius: 0.00003930
Device 101: Iteration  117 radius: 0.00004106
Device 101: Iteration  118 radius: 0.00003909
Device 100: Iteration  119 radius: 0.00003902
Device 101: Iteration  120 radius: 0.00003889
Device 100: Iteration  121 radius: 0.00003878
Device 101: Iteration  122 radius: 0.00003872
Device 100: Iteration  123 radius: 0.00003863
Device 101: Iteration  124 radius: 0.00003854
Device 100: Iteration  125 radius: 0.00003844
Device 101: Iteration  126 radius: 0.00003835
Device 100: Iteration  127 radius: 0.00003825
Device 101: Iteration  128 radius: 0.00003999
Device 100: Iteration  129 radius: 0.00003808
Device 101: Iteration  130 radius: 0.00003800
Device 100: Iteration  131 radius: 0.00003830
Device 101: Iteration  132 radius: 0.00003781
Device 100: Iteration  133 radius: 0.00003953
Device 101: Iteration  134 radius: 0.00003806
Device 100: Iteration  135 radius: 0.00003756
Device 101: Iteration  136 radius: 0.00003747
Device 100: Iteration  137 radius: 0.00003999
Device 101: Iteration  138 radius: 0.00003731
Device 100: Iteration  139 radius: 0.00003819
Device 101: Iteration  140 radius: 0.00003715
Device 101: Iteration  141 radius: 0.00003707
Device 100: Iteration  142 radius: 0.00003794
Device 101: Iteration  143 radius: 0.00003692
Device 100: Iteration  144 radius: 0.00003685
Device 101: Iteration  145 radius: 0.00003716
Device 100: Iteration  146 radius: 0.00003669
Device 101: Iteration  147 radius: 0.00003662
Device 100: Iteration  148 radius: 0.00003651
Device 101: Iteration  149 radius: 0.00003648
Device 100: Iteration  150 radius: 0.00003640
Device 101: Iteration  151 radius: 0.00003631
Device 100: Iteration  152 radius: 0.00003625
Device 101: Iteration  153 radius: 0.00003619
Device 100: Iteration  154 radius: 0.00003610
Device 101: Iteration  155 radius: 0.00003605
Device 100: Iteration  156 radius: 0.00003597
Device 101: Iteration  157 radius: 0.00003591
Device 100: Iteration  158 radius: 0.00003752
Device 101: Iteration  159 radius: 0.00003786
Device 101: Iteration  160 radius: 0.00003570
Device 100: Iteration  161 radius: 0.00003563
Device 101: Iteration  162 radius: 0.00003917
Device 100: Iteration  163 radius: 0.00003719
Device 101: Iteration  164 radius: 0.00003583
Device 100: Iteration  165 radius: 0.00003537
Device 101: Iteration  166 radius: 0.00003532
Device 100: Iteration  167 radius: 0.00003524
Device 101: Iteration  168 radius: 0.00003519
Device 100: Iteration  169 radius: 0.00003511
Device 101: Iteration  170 radius: 0.00003505
Device 100: Iteration  171 radius: 0.00003501
Device 101: Iteration  172 radius: 0.00003533
Device 100: Iteration  173 radius: 0.00003488
Device 101: Iteration  174 radius: 0.00003483
Device 100: Iteration  175 radius: 0.00003786
Device 101: Iteration  176 radius: 0.00003469
Device 101: Iteration  178 radius: 0.00003495
Device 100: Iteration  177 radius: 0.00003464
Device 101: Iteration  179 radius: 0.00003452
Device 100: Iteration  180 radius: 0.00003485
Device 101: Iteration  181 radius: 0.00003439
Device 100: Iteration  182 radius: 0.00003434
Device 101: Iteration  183 radius: 0.00003430
Device 100: Iteration  184 radius: 0.00003423
Device 101: Iteration  185 radius: 0.00003580
Device 100: Iteration  186 radius: 0.00003412
Device 101: Iteration  187 radius: 0.00003408
Device 100: Iteration  188 radius: 0.00003644
Device 101: Iteration  189 radius: 0.00003396
Device 100: Iteration  190 radius: 0.00003429
Device 101: Iteration  191 radius: 0.00003386
Device 100: Iteration  192 radius: 0.00003380
Device 101: Iteration  193 radius: 0.00003376
Device 100: Iteration  194 radius: 0.00003370
Device 101: Iteration  195 radius: 0.00003365
Device 100: Iteration  196 radius: 0.00003359
Device 101: Iteration  197 radius: 0.00003649
Device 100: Iteration  198 radius: 0.00003350
Device 101: Iteration  199 radius: 0.00003717
Device 100: Iteration  200 radius: 0.00003339
Device 101: Iteration  201 radius: 0.00003335
Device 101: Iteration  202 radius: 0.00003329
Device 100: Iteration  203 radius: 0.00003360
Device 101: Iteration  204 radius: 0.00003317
Device 100: Iteration  205 radius: 0.00003314
Device 101: Iteration  206 radius: 0.00003308
Device 100: Iteration  207 radius: 0.00003306
Device 101: Iteration  208 radius: 0.00003301
Device 100: Iteration  209 radius: 0.00003295
Device 101: Iteration  210 radius: 0.00003291
Device 100: Iteration  211 radius: 0.00003322
Device 101: Iteration  212 radius: 0.00003282
Device 100: Iteration  213 radius: 0.00003278
Device 101: Iteration  214 radius: 0.00003273
Device 100: Iteration  215 radius: 0.00003281
Device 101: Iteration  216 radius: 0.00003299
Device 100: Iteration  217 radius: 0.00003413
Device 101: Iteration  218 radius: 0.00003255
Device 100: Iteration  219 radius: 0.00003249
Device 101: Iteration  220 radius: 0.00003514
Device 100: Iteration  221 radius: 0.00003241
Device 101: Iteration  222 radius: 0.00003236
Device 100: Iteration  223 radius: 0.00003488
Device 101: Iteration  224 radius: 0.00003228
Device 100: Iteration  225 radius: 0.00003259
Device 101: Iteration  226 radius: 0.00003219
Device 100: Iteration  227 radius: 0.00003366
Device 101: Iteration  228 radius: 0.00003246
Device 100: Iteration  229 radius: 0.00003359
Device 101: Iteration  230 radius: 0.00003233
Device 100: Iteration  231 radius: 0.00003198
Device 101: Iteration  232 radius: 0.00003194
Device 100: Iteration  233 radius: 0.00003225
Device 101: Iteration  234 radius: 0.00003187
Device 100: Iteration  235 radius: 0.00003182
Device 101: Iteration  236 radius: 0.00003179
Device 100: Iteration  237 radius: 0.00003173
Device 101: Iteration  238 radius: 0.00003170
Device 100: Iteration  239 radius: 0.00003384
Device 101: Iteration  240 radius: 0.00003163
Device 100: Iteration  241 radius: 0.00003192
Device 101: Iteration  242 radius: 0.00003155
Device 100: Iteration  243 radius: 0.00003150
Device 101: Iteration  244 radius: 0.00003147
Device 100: Iteration  245 radius: 0.00003142
Device 101: Iteration  246 radius: 0.00003139
Device 100: Iteration  248 radius: 0.00003128
Device 101: Iteration  247 radius: 0.00003135
Device 101: Iteration  249 radius: 0.00003126
Device 100: Iteration  250 radius: 0.00003201
Device 101: Iteration  251 radius: 0.00003121
Device 100: Iteration  252 radius: 0.00003151
Device 101: Iteration  253 radius: 0.00003113
Device 100: Iteration  254 radius: 0.00003108
Device 101: Iteration  255 radius: 0.00003104
Device 100: Iteration  256 radius: 0.00003101
Device 101: Iteration  257 radius: 0.00003098
Device 100: Iteration  258 radius: 0.00003240
Device 101: Iteration  259 radius: 0.00003091
Device 100: Iteration  260 radius: 0.00003087
Device 101: Iteration  261 radius: 0.00003338
Device 100: Iteration  262 radius: 0.00003158
Device 101: Iteration  263 radius: 0.00003074
Device 100: Iteration  264 radius: 0.00003219
Device 101: Iteration  265 radius: 0.00003216
Device 100: Iteration  266 radius: 0.00003065
Device 101: Iteration  267 radius: 0.00003061
Device 100: Iteration  268 radius: 0.00003092
Device 101: Iteration  269 radius: 0.00003090
Device 100: Iteration  270 radius: 0.00003052
Device 101: Iteration  271 radius: 0.00003048
Device 100: Iteration  272 radius: 0.00003188
Device 101: Iteration  273 radius: 0.00003043
Device 100: Iteration  274 radius: 0.00003193
Device 101: Iteration  275 radius: 0.00003034
Device 100: Iteration  276 radius: 0.00003033
Device 101: Iteration  277 radius: 0.00003172
Device 100: Iteration  278 radius: 0.00003169
Device 101: Iteration  279 radius: 0.00003022
Device 100: Iteration  280 radius: 0.00003019
Device 101: Iteration  281 radius: 0.00003050
Device 100: Iteration  282 radius: 0.00003013
Device 101: Iteration  283 radius: 0.00003009
Device 100: Iteration  284 radius: 0.00003040
Device 101: Iteration  285 radius: 0.00003003
Device 100: Iteration  286 radius: 0.00002999
Device 101: Iteration  287 radius: 0.00002998
Device 100: Iteration  288 radius: 0.00003026
Device 101: Iteration  289 radius: 0.00002991
Device 100: Iteration  290 radius: 0.00002988
Device 101: Iteration  291 radius: 0.00002985
Device 100: Iteration  292 radius: 0.00002982
Device 101: Iteration  293 radius: 0.00002978
Device 100: Iteration  294 radius: 0.00003009
Device 101: Iteration  295 radius: 0.00002973
Device 100: Iteration  296 radius: 0.00002968
Device 101: Iteration  297 radius: 0.00002999
Device 100: Iteration  298 radius: 0.00002964
Device 101: Iteration  299 radius: 0.00002960
Device 100: Iteration  300 radius: 0.00002956
Device 101: Iteration  301 radius: 0.00003094
Device 100: Iteration  302 radius: 0.00002985
Device 101: Iteration  303 radius: 0.00002980
Device 101: Iteration  304 radius: 0.00002946
Device 100: Iteration  305 radius: 0.00002942
Device 101: Iteration  306 radius: 0.00002939
Device 100: Iteration  307 radius: 0.00002938
Device 101: Iteration  308 radius: 0.00003142
Device 100: Iteration  309 radius: 0.00002932
Device 101: Iteration  310 radius: 0.00002928
Device 100: Iteration  311 radius: 0.00003064
Device 101: Iteration  312 radius: 0.00007071
Device 100: Iteration  313 radius: 0.00002919
Device 101: Iteration  314 radius: 0.00002948
Device 100: Iteration  315 radius: 0.00002947
Device 101: Iteration  316 radius: 0.00002912
Device 100: Iteration  317 radius: 0.00002910
Device 101: Iteration  318 radius: 0.00002907
Device 100: Iteration  319 radius: 0.00003195
Device 101: Iteration  320 radius: 0.00002901
Device 100: Iteration  321 radius: 0.00002897
Device 101: Iteration  322 radius: 0.00002895
Device 100: Iteration  323 radius: 0.00002893
Device 101: Iteration  324 radius: 0.00002891
Device 100: Iteration  325 radius: 0.00002887
Device 101: Iteration  326 radius: 0.00002885
Device 100: Iteration  327 radius: 0.00003072
Device 101: Iteration  328 radius: 0.00002911
Device 100: Iteration  329 radius: 0.00002876
Device 101: Iteration  330 radius: 0.00002873
Device 100: Iteration  331 radius: 0.00002870
Device 101: Iteration  332 radius: 0.00002869
Device 101: Iteration  333 radius: 0.00002867
Device 100: Iteration  334 radius: 0.00002863
Device 101: Iteration  335 radius: 0.00002893
Device 100: Iteration  336 radius: 0.00002859
Device 101: Iteration  337 radius: 0.00002856
Device 100: Iteration  338 radius: 0.00002854
Device 101: Iteration  339 radius: 0.00002924
Device 100: Iteration  340 radius: 0.00002952
Device 101: Iteration  341 radius: 0.00002845
Device 100: Iteration  342 radius: 0.00002844
Device 101: Iteration  343 radius: 0.00003037
Device 100: Iteration  344 radius: 0.00002839
Device 101: Iteration  345 radius: 0.00002867
Device 100: Iteration  346 radius: 0.00003005
Device 101: Iteration  347 radius: 0.00002830
Device 100: Iteration  348 radius: 0.00002829
Device 101: Iteration  349 radius: 0.00002826
Device 100: Iteration  350 radius: 0.00002990
Device 101: Iteration  351 radius: 0.00002822
Device 100: Iteration  352 radius: 0.00002819
Device 101: Iteration  353 radius: 0.00002817
Device 100: Iteration  354 radius: 0.00002815
Device 101: Iteration  355 radius: 0.00002812
Device 100: Iteration  356 radius: 0.00002809
Device 101: Iteration  357 radius: 0.00002806
Device 100: Iteration  358 radius: 0.00002805
Device 101: Iteration  359 radius: 0.00002873
Device 100: Iteration  360 radius: 0.00002830
Device 101: Iteration  361 radius: 0.00002900
Device 100: Iteration  362 radius: 0.00002795
Device 101: Iteration  363 radius: 0.00002792
Device 101: Iteration  364 radius: 0.00002791
Device 100: Iteration  365 radius: 0.00002787
Device 101: Iteration  366 radius: 0.00002787
Device 100: Iteration  367 radius: 0.00002784
Device 101: Iteration  368 radius: 0.00002812
Device 100: Iteration  369 radius: 0.00002780
Device 101: Iteration  370 radius: 0.00002909
Device 100: Iteration  371 radius: 0.00002805
Device 101: Iteration  372 radius: 0.00002773
Device 100: Iteration  373 radius: 0.00002802
Device 101: Iteration  374 radius: 0.00002768
Device 100: Iteration  375 radius: 0.00002797
Device 101: Iteration  376 radius: 0.00002761
Device 100: Iteration  377 radius: 0.00002762
Device 101: Iteration  378 radius: 0.00002759
Device 100: Iteration  379 radius: 0.00002788
Device 101: Iteration  380 radius: 0.00002885
Device 100: Iteration  381 radius: 0.00002997
Device 101: Iteration  382 radius: 0.00002752
Device 100: Iteration  383 radius: 0.00002849
Device 101: Iteration  384 radius: 0.00002745
Device 100: Iteration  385 radius: 0.00002775
Device 101: Iteration  386 radius: 0.00002771
Device 100: Iteration  387 radius: 0.00002741
Device 101: Iteration  388 radius: 0.00002738
Device 100: Iteration  389 radius: 0.00002736
Device 101: Iteration  390 radius: 0.00002735
Device 100: Iteration  391 radius: 0.00002732
Device 101: Iteration  392 radius: 0.00002730
Device 100: Iteration  393 radius: 0.00002728
Device 101: Iteration  394 radius: 0.00002726
Device 100: Iteration  395 radius: 0.00002724
Device 101: Iteration  396 radius: 0.00002722
Device 100: Iteration  397 radius: 0.00002749
Device 101: Iteration  398 radius: 0.00002844
Device 100: Iteration  399 radius: 0.00002873
Device 101: Iteration  400 radius: 0.00002840
Device 100: Iteration  401 radius: 0.00002709
Device 101: Iteration  402 radius: 0.00002709
Device 100: Iteration  403 radius: 0.00002940
Device 101: Iteration  404 radius: 0.00002706
Device 100: Iteration  405 radius: 0.00002703
Device 101: Iteration  406 radius: 0.00002701
Device 100: Iteration  407 radius: 0.00002729
Device 101: Iteration  408 radius: 0.00002825
Device 100: Iteration  409 radius: 0.00002696
Device 101: Iteration  410 radius: 0.00002692
Device 100: Iteration  411 radius: 0.00002692
Device 101: Iteration  412 radius: 0.00002689
Device 100: Iteration  413 radius: 0.00002716
Device 101: Iteration  414 radius: 0.00002685
Device 101: Iteration  415 radius: 0.00002683
Device 100: Iteration  416 radius: 0.00002681
Device 101: Iteration  417 radius: 0.00002680
Device 100: Iteration  418 radius: 0.00002707
Device 101: Iteration  419 radius: 0.00002704
Device 100: Iteration  420 radius: 0.00002674
Device 101: Iteration  421 radius: 0.00002854
Device 100: Iteration  422 radius: 0.00002670
Device 101: Iteration  423 radius: 0.00002668
Device 100: Iteration  424 radius: 0.00002667
Device 101: Iteration  425 radius: 0.00002665
Device 100: Iteration  426 radius: 0.00002662
Device 101: Iteration  427 radius: 0.00002690
Device 100: Iteration  428 radius: 0.00002687
Device 101: Iteration  429 radius: 0.00002658
Device 100: Iteration  430 radius: 0.00002684
Device 101: Iteration  431 radius: 0.00002654
Device 100: Iteration  432 radius: 0.00002651
Device 101: Iteration  433 radius: 0.00002650
Device 100: Iteration  434 radius: 0.00002715
Device 101: Iteration  435 radius: 0.00002800
Device 100: Iteration  436 radius: 0.00002644
Device 101: Iteration  437 radius: 0.00002642
Device 100: Iteration  438 radius: 0.00002639
Device 101: Iteration  439 radius: 0.00002856
Device 101: Iteration  440 radius: 0.00002636
Device 100: Iteration  441 radius: 0.00002664
Device 101: Iteration  442 radius: 0.00002662
Device 100: Iteration  443 radius: 0.00002660
Device 101: Iteration  444 radius: 0.00002629
Device 100: Iteration  445 radius: 0.00002657
Device 101: Iteration  446 radius: 0.00002627
Device 100: Iteration  447 radius: 0.00002625
Device 101: Iteration  448 radius: 0.00002622
Device 100: Iteration  449 radius: 0.00002619
Device 101: Iteration  450 radius: 0.00002619
Device 100: Iteration  451 radius: 0.00002618
Device 101: Iteration  452 radius: 0.00002831
Device 100: Iteration  453 radius: 0.00002613
Device 101: Iteration  454 radius: 0.00002850
Device 100: Iteration  455 radius: 0.00002833
Device 101: Iteration  456 radius: 0.00002608
Device 100: Iteration  457 radius: 0.00002608
Device 101: Iteration  458 radius: 0.00002754
Device 101: Iteration  459 radius: 0.00002604
Device 100: Iteration  460 radius: 0.00002724
Device 101: Iteration  461 radius: 0.00002601
Device 100: Iteration  462 radius: 0.00002722
Device 101: Iteration  463 radius: 0.00002626
Device 100: Iteration  464 radius: 0.00002623
Device 101: Iteration  465 radius: 0.00002593
Device 100: Iteration  466 radius: 0.00002591
Device 101: Iteration  467 radius: 0.00002591
Device 100: Iteration  468 radius: 0.00002587
Device 101: Iteration  469 radius: 0.00002586
Device 100: Iteration  470 radius: 0.00002584
Device 101: Iteration  471 radius: 0.00002584
Device 100: Iteration  472 radius: 0.00002610
Device 101: Iteration  473 radius: 0.00002581
Device 100: Iteration  474 radius: 0.00002579
Device 101: Iteration  475 radius: 0.00002577
Device 100: Iteration  476 radius: 0.00002575
Device 101: Iteration  477 radius: 0.00002573
Device 100: Iteration  478 radius: 0.00002573
Device 101: Iteration  479 radius: 0.00002570
Device 100: Iteration  480 radius: 0.00002569
Device 101: Iteration  481 radius: 0.00002568
Device 100: Iteration  482 radius: 0.00002565
Device 101: Iteration  483 radius: 0.00002563
Device 100: Iteration  484 radius: 0.00002562
Device 101: Iteration  485 radius: 0.00002561
Device 101: Iteration  486 radius: 0.00002680
Device 100: Iteration  487 radius: 0.00002585
Device 101: Iteration  488 radius: 0.00002584
Device 100: Iteration  489 radius: 0.00002555
Device 101: Iteration  490 radius: 0.00002712
Device 100: Iteration  491 radius: 0.00002579
Device 101: Iteration  492 radius: 0.00002551
Device 100: Iteration  493 radius: 0.00002548
Device 101: Iteration  494 radius: 0.00002575
Device 100: Iteration  495 radius: 0.00002546
Device 101: Iteration  496 radius: 0.00002544
Device 100: Iteration  497 radius: 0.00002663
Device 101: Iteration  498 radius: 0.00002539
Device 100: Iteration  499 radius: 0.00002539
Device 101: Iteration  500 radius: 0.00002659
Worker 100 finished


Device 100|PM MPhotons/sec|1.41713
Device 100|PM MRays/sec|3.90012
Device 100|PT MEyeSamples/sec|1.25522
Device 100|PT MRays/sec|1.36309
Device 100|iterations/sec|0.514619
Worker 101 finished


Device 101|PM MPhotons/sec|1.58068
Device 101|PM MRays/sec|4.35031
Device 101|PT MEyeSamples/sec|1.24208
Device 101|PT MRays/sec|1.34882
Device 101|iterations/sec|0.556637
All sampleBuffer processed!

System|execution time|467.208
System|MPhotons/sec|2.244
System|iteration/sec|1.077
Total photons: 1048.58M
GRACEFUL_EXIT
