800 600 1 2097152 0.7 1 1 500 0 2 601 0 scenes/psor-cube/psor-cube.scn image.tiff 0
Engine|SPPM
Reading scene: scenes/psor-cube/psor-cube.scn
Total triangle count|33796
Total QBVH memory usage: 566Kbytes
Device configuration|GPU0
GPU AS|GPU_HASH_GRID of 524288 buckets
Slicing Photons in|2...
Device   0: Iteration    1 radius: 0.00000000
Device   0: Iteration    2 radius: 0.00000000
Device   0: Iteration    3 radius: 0.00000000
Device   0: Iteration    4 radius: 0.00000000
Device   0: Iteration    5 radius: 0.00000000
Device   0: Iteration    6 radius: 0.00000000
Device   0: Iteration    7 radius: 0.00000000
Device   0: Iteration    8 radius: 0.00000000
Device   0: Iteration    9 radius: 0.00000000
Device   0: Iteration   10 radius: 0.00000000
Device   0: Iteration   11 radius: 0.00000000
Device   0: Iteration   12 radius: 0.00000000
Device   0: Iteration   13 radius: 0.00000000
Device   0: Iteration   14 radius: 0.00000000
Device   0: Iteration   15 radius: 0.00000000
Device   0: Iteration   16 radius: 0.00000000
Device   0: Iteration   17 radius: 0.00000000
Device   0: Iteration   18 radius: 0.00000000
Device   0: Iteration   19 radius: 0.00000000
Device   0: Iteration   20 radius: 0.00000000
Device   0: Iteration   21 radius: 0.00000000
Device   0: Iteration   22 radius: 0.00000000
Device   0: Iteration   23 radius: 0.00000000
Device   0: Iteration   24 radius: 0.00000000
Device   0: Iteration   25 radius: 0.00000000
Device   0: Iteration   26 radius: 0.00000000
Device   0: Iteration   27 radius: 0.00000000
Device   0: Iteration   28 radius: 0.00000000
Device   0: Iteration   29 radius: 0.00000000
Device   0: Iteration   30 radius: 0.00000000
Device   0: Iteration   31 radius: 0.00000000
Device   0: Iteration   32 radius: 0.00000000
Device   0: Iteration   33 radius: 0.00000000
Device   0: Iteration   34 radius: 0.00000000
Device   0: Iteration   35 radius: 0.00000000
Device   0: Iteration   36 radius: 0.00000000
Device   0: Iteration   37 radius: 0.00000000
Device   0: Iteration   38 radius: 0.00000000
Device   0: Iteration   39 radius: 0.00000000
Device   0: Iteration   40 radius: 0.00000000
Device   0: Iteration   41 radius: 0.00000000
Device   0: Iteration   42 radius: 0.00000000
Device   0: Iteration   43 radius: 0.00000000
Device   0: Iteration   44 radius: 0.00000000
Device   0: Iteration   45 radius: 0.00000000
Device   0: Iteration   46 radius: 0.00000000
Device   0: Iteration   47 radius: 0.00000000
Device   0: Iteration   48 radius: 0.00000000
Device   0: Iteration   49 radius: 0.00000000
Device   0: Iteration   50 radius: 0.00000000
Device   0: Iteration   51 radius: 0.00000000
Device   0: Iteration   52 radius: 0.00000000
Device   0: Iteration   53 radius: 0.00000000
Device   0: Iteration   54 radius: 0.00000000
Device   0: Iteration   55 radius: 0.00000000
Device   0: Iteration   56 radius: 0.00000000
Device   0: Iteration   57 radius: 0.00000000
Device   0: Iteration   58 radius: 0.00000000
Device   0: Iteration   59 radius: 0.00000000
Device   0: Iteration   60 radius: 0.00000000
Device   0: Iteration   61 radius: 0.00000000
Device   0: Iteration   62 radius: 0.00000000
Device   0: Iteration   63 radius: 0.00000000
Device   0: Iteration   64 radius: 0.00000000
Device   0: Iteration   65 radius: 0.00000000
Device   0: Iteration   66 radius: 0.00000000
Device   0: Iteration   67 radius: 0.00000000
Device   0: Iteration   68 radius: 0.00000000
Device   0: Iteration   69 radius: 0.00000000
Device   0: Iteration   70 radius: 0.00000000
Device   0: Iteration   71 radius: 0.00000000
Device   0: Iteration   72 radius: 0.00000000
Device   0: Iteration   73 radius: 0.00000000
Device   0: Iteration   74 radius: 0.00000000
Device   0: Iteration   75 radius: 0.00000000
Device   0: Iteration   76 radius: 0.00000000
Device   0: Iteration   77 radius: 0.00000000
Device   0: Iteration   78 radius: 0.00000000
Device   0: Iteration   79 radius: 0.00000000
Device   0: Iteration   80 radius: 0.00000000
Device   0: Iteration   81 radius: 0.00000000
Device   0: Iteration   82 radius: 0.00000000
Device   0: Iteration   83 radius: 0.00000000
Device   0: Iteration   84 radius: 0.00000000
Device   0: Iteration   85 radius: 0.00000000
Device   0: Iteration   86 radius: 0.00000000
Device   0: Iteration   87 radius: 0.00000000
Device   0: Iteration   88 radius: 0.00000000
Device   0: Iteration   89 radius: 0.00000000
Device   0: Iteration   90 radius: 0.00000000
Device   0: Iteration   91 radius: 0.00000000
Device   0: Iteration   92 radius: 0.00000000
Device   0: Iteration   93 radius: 0.00000000
Device   0: Iteration   94 radius: 0.00000000
Device   0: Iteration   95 radius: 0.00000000
Device   0: Iteration   96 radius: 0.00000000
Device   0: Iteration   97 radius: 0.00000000
Device   0: Iteration   98 radius: 0.00000000
Device   0: Iteration   99 radius: 0.00000000
Device   0: Iteration  100 radius: 0.00000000
Device   0: Iteration  101 radius: 0.00000000
Device   0: Iteration  102 radius: 0.00000000
Device   0: Iteration  103 radius: 0.00000000
Device   0: Iteration  104 radius: 0.00000000
Device   0: Iteration  105 radius: 0.00000000
Device   0: Iteration  106 radius: 0.00000000
Device   0: Iteration  107 radius: 0.00000000
Device   0: Iteration  108 radius: 0.00000000
Device   0: Iteration  109 radius: 0.00000000
Device   0: Iteration  110 radius: 0.00000000
Device   0: Iteration  111 radius: 0.00000000
Device   0: Iteration  112 radius: 0.00000000
Device   0: Iteration  113 radius: 0.00000000
Device   0: Iteration  114 radius: 0.00000000
Device   0: Iteration  115 radius: 0.00000000
Device   0: Iteration  116 radius: 0.00000000
Device   0: Iteration  117 radius: 0.00000000
Device   0: Iteration  118 radius: 0.00000000
Device   0: Iteration  119 radius: 0.00000000
Device   0: Iteration  120 radius: 0.00000000
Device   0: Iteration  121 radius: 0.00000000
Device   0: Iteration  122 radius: 0.00000000
Device   0: Iteration  123 radius: 0.00000000
Device   0: Iteration  124 radius: 0.00000000
Device   0: Iteration  125 radius: 0.00000000
Device   0: Iteration  126 radius: 0.00000000
Device   0: Iteration  127 radius: 0.00000000
Device   0: Iteration  128 radius: 0.00000000
Device   0: Iteration  129 radius: 0.00000000
Device   0: Iteration  130 radius: 0.00000000
Device   0: Iteration  131 radius: 0.00000000
Device   0: Iteration  132 radius: 0.00000000
Device   0: Iteration  133 radius: 0.00000000
Device   0: Iteration  134 radius: 0.00000000
Device   0: Iteration  135 radius: 0.00000000
Device   0: Iteration  136 radius: 0.00000000
Device   0: Iteration  137 radius: 0.00000000
Device   0: Iteration  138 radius: 0.00000000
Device   0: Iteration  139 radius: 0.00000000
Device   0: Iteration  140 radius: 0.00000000
Device   0: Iteration  141 radius: 0.00000000
Device   0: Iteration  142 radius: 0.00000000
Device   0: Iteration  143 radius: 0.00000000
Device   0: Iteration  144 radius: 0.00000000
Device   0: Iteration  145 radius: 0.00000000
Device   0: Iteration  146 radius: 0.00000000
Device   0: Iteration  147 radius: 0.00000000
Device   0: Iteration  148 radius: 0.00000000
Device   0: Iteration  149 radius: 0.00000000
Device   0: Iteration  150 radius: 0.00000000
Device   0: Iteration  151 radius: 0.00000000
Device   0: Iteration  152 radius: 0.00000000
Device   0: Iteration  153 radius: 0.00000000
Device   0: Iteration  154 radius: 0.00000000
Device   0: Iteration  155 radius: 0.00000000
Device   0: Iteration  156 radius: 0.00000000
Device   0: Iteration  157 radius: 0.00000000
Device   0: Iteration  158 radius: 0.00000000
Device   0: Iteration  159 radius: 0.00000000
Device   0: Iteration  160 radius: 0.00000000
Device   0: Iteration  161 radius: 0.00000000
Device   0: Iteration  162 radius: 0.00000000
Device   0: Iteration  163 radius: 0.00000000
Device   0: Iteration  164 radius: 0.00000000
Device   0: Iteration  165 radius: 0.00000000
Device   0: Iteration  166 radius: 0.00000000
Device   0: Iteration  167 radius: 0.00000000
Device   0: Iteration  168 radius: 0.00000000
Device   0: Iteration  169 radius: 0.00000000
Device   0: Iteration  170 radius: 0.00000000
Device   0: Iteration  171 radius: 0.00000000
Device   0: Iteration  172 radius: 0.00000000
Device   0: Iteration  173 radius: 0.00000000
Device   0: Iteration  174 radius: 0.00000000
Device   0: Iteration  175 radius: 0.00000000
Device   0: Iteration  176 radius: 0.00000000
Device   0: Iteration  177 radius: 0.00000000
Device   0: Iteration  178 radius: 0.00000000
Device   0: Iteration  179 radius: 0.00000000
Device   0: Iteration  180 radius: 0.00000000
Device   0: Iteration  181 radius: 0.00000000
Device   0: Iteration  182 radius: 0.00000000
Device   0: Iteration  183 radius: 0.00000000
Device   0: Iteration  184 radius: 0.00000000
Device   0: Iteration  185 radius: 0.00000000
Device   0: Iteration  186 radius: 0.00000000
Device   0: Iteration  187 radius: 0.00000000
Device   0: Iteration  188 radius: 0.00000000
Device   0: Iteration  189 radius: 0.00000000
Device   0: Iteration  190 radius: 0.00000000
Device   0: Iteration  191 radius: 0.00000000
Device   0: Iteration  192 radius: 0.00000000
Device   0: Iteration  193 radius: 0.00000000
Device   0: Iteration  194 radius: 0.00000000
Device   0: Iteration  195 radius: 0.00000000
Device   0: Iteration  196 radius: 0.00000000
Device   0: Iteration  197 radius: 0.00000000
Device   0: Iteration  198 radius: 0.00000000
Device   0: Iteration  199 radius: 0.00000000
Device   0: Iteration  200 radius: 0.00000000
Device   0: Iteration  201 radius: 0.00000000
Device   0: Iteration  202 radius: 0.00000000
Device   0: Iteration  203 radius: 0.00000000
Device   0: Iteration  204 radius: 0.00000000
Device   0: Iteration  205 radius: 0.00000000
Device   0: Iteration  206 radius: 0.00000000
Device   0: Iteration  207 radius: 0.00000000
Device   0: Iteration  208 radius: 0.00000000
Device   0: Iteration  209 radius: 0.00000000
Device   0: Iteration  210 radius: 0.00000000
Device   0: Iteration  211 radius: 0.00000000
Device   0: Iteration  212 radius: 0.00000000
Device   0: Iteration  213 radius: 0.00000000
Device   0: Iteration  214 radius: 0.00000000
Device   0: Iteration  215 radius: 0.00000000
Device   0: Iteration  216 radius: 0.00000000
Device   0: Iteration  217 radius: 0.00000000
Device   0: Iteration  218 radius: 0.00000000
Device   0: Iteration  219 radius: 0.00000000
Device   0: Iteration  220 radius: 0.00000000
Device   0: Iteration  221 radius: 0.00000000
Device   0: Iteration  222 radius: 0.00000000
Device   0: Iteration  223 radius: 0.00000000
Device   0: Iteration  224 radius: 0.00000000
Device   0: Iteration  225 radius: 0.00000000
Device   0: Iteration  226 radius: 0.00000000
Device   0: Iteration  227 radius: 0.00000000
Device   0: Iteration  228 radius: 0.00000000
Device   0: Iteration  229 radius: 0.00000000
Device   0: Iteration  230 radius: 0.00000000
Device   0: Iteration  231 radius: 0.00000000
Device   0: Iteration  232 radius: 0.00000000
Device   0: Iteration  233 radius: 0.00000000
Device   0: Iteration  234 radius: 0.00000000
Device   0: Iteration  235 radius: 0.00000000
Device   0: Iteration  236 radius: 0.00000000
Device   0: Iteration  237 radius: 0.00000000
Device   0: Iteration  238 radius: 0.00000000
Device   0: Iteration  239 radius: 0.00000000
Device   0: Iteration  240 radius: 0.00000000
Device   0: Iteration  241 radius: 0.00000000
Device   0: Iteration  242 radius: 0.00000000
Device   0: Iteration  243 radius: 0.00000000
Device   0: Iteration  244 radius: 0.00000000
Device   0: Iteration  245 radius: 0.00000000
Device   0: Iteration  246 radius: 0.00000000
Device   0: Iteration  247 radius: 0.00000000
Device   0: Iteration  248 radius: 0.00000000
Device   0: Iteration  249 radius: 0.00000000
Device   0: Iteration  250 radius: 0.00000000
Device   0: Iteration  251 radius: 0.00000000
Device   0: Iteration  252 radius: 0.00000000
Device   0: Iteration  253 radius: 0.00000000
Device   0: Iteration  254 radius: 0.00000000
Device   0: Iteration  255 radius: 0.00000000
Device   0: Iteration  256 radius: 0.00000000
Device   0: Iteration  257 radius: 0.00000000
Device   0: Iteration  258 radius: 0.00000000
Device   0: Iteration  259 radius: 0.00000000
Device   0: Iteration  260 radius: 0.00000000
Device   0: Iteration  261 radius: 0.00000000
Device   0: Iteration  262 radius: 0.00000000
Device   0: Iteration  263 radius: 0.00000000
Device   0: Iteration  264 radius: 0.00000000
Device   0: Iteration  265 radius: 0.00000000
Device   0: Iteration  266 radius: 0.00000000
Device   0: Iteration  267 radius: 0.00000000
Device   0: Iteration  268 radius: 0.00000000
Device   0: Iteration  269 radius: 0.00000000
Device   0: Iteration  270 radius: 0.00000000
Device   0: Iteration  271 radius: 0.00000000
Device   0: Iteration  272 radius: 0.00000000
Device   0: Iteration  273 radius: 0.00000000
Device   0: Iteration  274 radius: 0.00000000
Device   0: Iteration  275 radius: 0.00000000
Device   0: Iteration  276 radius: 0.00000000
Device   0: Iteration  277 radius: 0.00000000
Device   0: Iteration  278 radius: 0.00000000
Device   0: Iteration  279 radius: 0.00000000
Device   0: Iteration  280 radius: 0.00000000
Device   0: Iteration  281 radius: 0.00000000
Device   0: Iteration  282 radius: 0.00000000
Device   0: Iteration  283 radius: 0.00000000
Device   0: Iteration  284 radius: 0.00000000
Device   0: Iteration  285 radius: 0.00000000
Device   0: Iteration  286 radius: 0.00000000
Device   0: Iteration  287 radius: 0.00000000
Device   0: Iteration  288 radius: 0.00000000
Device   0: Iteration  289 radius: 0.00000000
Device   0: Iteration  290 radius: 0.00000000
Device   0: Iteration  291 radius: 0.00000000
Device   0: Iteration  292 radius: 0.00000000
Device   0: Iteration  293 radius: 0.00000000
Device   0: Iteration  294 radius: 0.00000000
Device   0: Iteration  295 radius: 0.00000000
Device   0: Iteration  296 radius: 0.00000000
Device   0: Iteration  297 radius: 0.00000000
Device   0: Iteration  298 radius: 0.00000000
Device   0: Iteration  299 radius: 0.00000000
Device   0: Iteration  300 radius: 0.00000000
Device   0: Iteration  301 radius: 0.00000000
Device   0: Iteration  302 radius: 0.00000000
Device   0: Iteration  303 radius: 0.00000000
Device   0: Iteration  304 radius: 0.00000000
Device   0: Iteration  305 radius: 0.00000000
Device   0: Iteration  306 radius: 0.00000000
Device   0: Iteration  307 radius: 0.00000000
Device   0: Iteration  308 radius: 0.00000000
Device   0: Iteration  309 radius: 0.00000000
Device   0: Iteration  310 radius: 0.00000000
Device   0: Iteration  311 radius: 0.00000000
Device   0: Iteration  312 radius: 0.00000000
Device   0: Iteration  313 radius: 0.00000000
Device   0: Iteration  314 radius: 0.00000000
Device   0: Iteration  315 radius: 0.00000000
Device   0: Iteration  316 radius: 0.00000000
Device   0: Iteration  317 radius: 0.00000000
Device   0: Iteration  318 radius: 0.00000000
Device   0: Iteration  319 radius: 0.00000000
Device   0: Iteration  320 radius: 0.00000000
Device   0: Iteration  321 radius: 0.00000000
Device   0: Iteration  322 radius: 0.00000000
Device   0: Iteration  323 radius: 0.00000000
Device   0: Iteration  324 radius: 0.00000000
Device   0: Iteration  325 radius: 0.00000000
Device   0: Iteration  326 radius: 0.00000000
Device   0: Iteration  327 radius: 0.00000000
Device   0: Iteration  328 radius: 0.00000000
Device   0: Iteration  329 radius: 0.00000000
Device   0: Iteration  330 radius: 0.00000000
Device   0: Iteration  331 radius: 0.00000000
Device   0: Iteration  332 radius: 0.00000000
Device   0: Iteration  333 radius: 0.00000000
Device   0: Iteration  334 radius: 0.00000000
Device   0: Iteration  335 radius: 0.00000000
Device   0: Iteration  336 radius: 0.00000000
Device   0: Iteration  337 radius: 0.00000000
Device   0: Iteration  338 radius: 0.00000000
Device   0: Iteration  339 radius: 0.00000000
Device   0: Iteration  340 radius: 0.00000000
Device   0: Iteration  341 radius: 0.00000000
Device   0: Iteration  342 radius: 0.00000000
Device   0: Iteration  343 radius: 0.00000000
Device   0: Iteration  344 radius: 0.00000000
Device   0: Iteration  345 radius: 0.00000000
Device   0: Iteration  346 radius: 0.00000000
Device   0: Iteration  347 radius: 0.00000000
Device   0: Iteration  348 radius: 0.00000000
Device   0: Iteration  349 radius: 0.00000000
Device   0: Iteration  350 radius: 0.00000000
Device   0: Iteration  351 radius: 0.00000000
Device   0: Iteration  352 radius: 0.00000000
Device   0: Iteration  353 radius: 0.00000000
Device   0: Iteration  354 radius: 0.00000000
Device   0: Iteration  355 radius: 0.00000000
Device   0: Iteration  356 radius: 0.00000000
Device   0: Iteration  357 radius: 0.00000000
Device   0: Iteration  358 radius: 0.00000000
Device   0: Iteration  359 radius: 0.00000000
Device   0: Iteration  360 radius: 0.00000000
Device   0: Iteration  361 radius: 0.00000000
Device   0: Iteration  362 radius: 0.00000000
Device   0: Iteration  363 radius: 0.00000000
Device   0: Iteration  364 radius: 0.00000000
Device   0: Iteration  365 radius: 0.00000000
Device   0: Iteration  366 radius: 0.00000000
Device   0: Iteration  367 radius: 0.00000000
Device   0: Iteration  368 radius: 0.00000000
Device   0: Iteration  369 radius: 0.00000000
Device   0: Iteration  370 radius: 0.00000000
Device   0: Iteration  371 radius: 0.00000000
Device   0: Iteration  372 radius: 0.00000000
Device   0: Iteration  373 radius: 0.00000000
Device   0: Iteration  374 radius: 0.00000000
Device   0: Iteration  375 radius: 0.00000000
Device   0: Iteration  376 radius: 0.00000000
Device   0: Iteration  377 radius: 0.00000000
Device   0: Iteration  378 radius: 0.00000000
Device   0: Iteration  379 radius: 0.00000000
Device   0: Iteration  380 radius: 0.00000000
Device   0: Iteration  381 radius: 0.00000000
Device   0: Iteration  382 radius: 0.00000000
Device   0: Iteration  383 radius: 0.00000000
Device   0: Iteration  384 radius: 0.00000000
Device   0: Iteration  385 radius: 0.00000000
Device   0: Iteration  386 radius: 0.00000000
Device   0: Iteration  387 radius: 0.00000000
Device   0: Iteration  388 radius: 0.00000000
Device   0: Iteration  389 radius: 0.00000000
Device   0: Iteration  390 radius: 0.00000000
Device   0: Iteration  391 radius: 0.00000000
Device   0: Iteration  392 radius: 0.00000000
Device   0: Iteration  393 radius: 0.00000000
Device   0: Iteration  394 radius: 0.00000000
Device   0: Iteration  395 radius: 0.00000000
Device   0: Iteration  396 radius: 0.00000000
Device   0: Iteration  397 radius: 0.00000000
Device   0: Iteration  398 radius: 0.00000000
Device   0: Iteration  399 radius: 0.00000000
Device   0: Iteration  400 radius: 0.00000000
Device   0: Iteration  401 radius: 0.00000000
Device   0: Iteration  402 radius: 0.00000000
Device   0: Iteration  403 radius: 0.00000000
Device   0: Iteration  404 radius: 0.00000000
Device   0: Iteration  405 radius: 0.00000000
Device   0: Iteration  406 radius: 0.00000000
Device   0: Iteration  407 radius: 0.00000000
Device   0: Iteration  408 radius: 0.00000000
Device   0: Iteration  409 radius: 0.00000000
Device   0: Iteration  410 radius: 0.00000000
Device   0: Iteration  411 radius: 0.00000000
Device   0: Iteration  412 radius: 0.00000000
Device   0: Iteration  413 radius: 0.00000000
Device   0: Iteration  414 radius: 0.00000000
Device   0: Iteration  415 radius: 0.00000000
Device   0: Iteration  416 radius: 0.00000000
Device   0: Iteration  417 radius: 0.00000000
Device   0: Iteration  418 radius: 0.00000000
Device   0: Iteration  419 radius: 0.00000000
Device   0: Iteration  420 radius: 0.00000000
Device   0: Iteration  421 radius: 0.00000000
Device   0: Iteration  422 radius: 0.00000000
Device   0: Iteration  423 radius: 0.00000000
Device   0: Iteration  424 radius: 0.00000000
Device   0: Iteration  425 radius: 0.00000000
Device   0: Iteration  426 radius: 0.00000000
Device   0: Iteration  427 radius: 0.00000000
Device   0: Iteration  428 radius: 0.00000000
Device   0: Iteration  429 radius: 0.00000000
Device   0: Iteration  430 radius: 0.00000000
Device   0: Iteration  431 radius: 0.00000000
Device   0: Iteration  432 radius: 0.00000000
Device   0: Iteration  433 radius: 0.00000000
Device   0: Iteration  434 radius: 0.00000000
Device   0: Iteration  435 radius: 0.00000000
Device   0: Iteration  436 radius: 0.00000000
Device   0: Iteration  437 radius: 0.00000000
Device   0: Iteration  438 radius: 0.00000000
Device   0: Iteration  439 radius: 0.00000000
Device   0: Iteration  440 radius: 0.00000000
Device   0: Iteration  441 radius: 0.00000000
Device   0: Iteration  442 radius: 0.00000000
Device   0: Iteration  443 radius: 0.00000000
Device   0: Iteration  444 radius: 0.00000000
Device   0: Iteration  445 radius: 0.00000000
Device   0: Iteration  446 radius: 0.00000000
Device   0: Iteration  447 radius: 0.00000000
Device   0: Iteration  448 radius: 0.00000000
Device   0: Iteration  449 radius: 0.00000000
Device   0: Iteration  450 radius: 0.00000000
Device   0: Iteration  451 radius: 0.00000000
Device   0: Iteration  452 radius: 0.00000000
Device   0: Iteration  453 radius: 0.00000000
Device   0: Iteration  454 radius: 0.00000000
Device   0: Iteration  455 radius: 0.00000000
Device   0: Iteration  456 radius: 0.00000000
Device   0: Iteration  457 radius: 0.00000000
Device   0: Iteration  458 radius: 0.00000000
Device   0: Iteration  459 radius: 0.00000000
Device   0: Iteration  460 radius: 0.00000000
Device   0: Iteration  461 radius: 0.00000000
Device   0: Iteration  462 radius: 0.00000000
Device   0: Iteration  463 radius: 0.00000000
Device   0: Iteration  464 radius: 0.00000000
Device   0: Iteration  465 radius: 0.00000000
Device   0: Iteration  466 radius: 0.00000000
Device   0: Iteration  467 radius: 0.00000000
Device   0: Iteration  468 radius: 0.00000000
Device   0: Iteration  469 radius: 0.00000000
Device   0: Iteration  470 radius: 0.00000000
Device   0: Iteration  471 radius: 0.00000000
Device   0: Iteration  472 radius: 0.00000000
Device   0: Iteration  473 radius: 0.00000000
Device   0: Iteration  474 radius: 0.00000000
Device   0: Iteration  475 radius: 0.00000000
Device   0: Iteration  476 radius: 0.00000000
Device   0: Iteration  477 radius: 0.00000000
Device   0: Iteration  478 radius: 0.00000000
Device   0: Iteration  479 radius: 0.00000000
Device   0: Iteration  480 radius: 0.00000000
Device   0: Iteration  481 radius: 0.00000000
Device   0: Iteration  482 radius: 0.00000000
Device   0: Iteration  483 radius: 0.00000000
Device   0: Iteration  484 radius: 0.00000000
Device   0: Iteration  485 radius: 0.00000000
Device   0: Iteration  486 radius: 0.00000000
Device   0: Iteration  487 radius: 0.00000000
Device   0: Iteration  488 radius: 0.00000000
Device   0: Iteration  489 radius: 0.00000000
Device   0: Iteration  490 radius: 0.00000000
Device   0: Iteration  491 radius: 0.00000000
Device   0: Iteration  492 radius: 0.00000000
Device   0: Iteration  493 radius: 0.00000000
Device   0: Iteration  494 radius: 0.00000000
Device   0: Iteration  495 radius: 0.00000000
Device   0: Iteration  496 radius: 0.00000000
Device   0: Iteration  497 radius: 0.00000000
Device   0: Iteration  498 radius: 0.00000000
Device   0: Iteration  499 radius: 0.00000000
Device   0: Iteration  500 radius: 0.00000000
Worker 0 finished


Device 0|PM MPhotons/sec|35.5597
Device 0|PM MRays/sec|47.0894
Device 0|PT MEyeSamples/sec|19.8833
Device 0|PT MRays/sec|23.8513
Device 0|iterations/sec|7.59354
All sampleBuffer processed!

System|execution time|67.473
System|MPhotons/sec|15.541
System|iteration/sec|7.440
Total photons: 1048.58M


=====================================================================================
Walltime                                                                    | 67.613 |
Total Job                                                                   | 67.473 |
Process Iterations                                                          | 66.066 |
Process Iterations > Iterations                                             | 65.846 |
Process Iterations > Iterations > Build Hit Points                          | 12.073 |
Process Iterations > Iterations > Update BBox                               | 2.398 |
Process Iterations > Iterations > Initialize radius                         | 0.000 |
Process Iterations > Iterations > Update lookup                             | 4.191 |
Process Iterations > Iterations > Build Photon Map                          | 37.196 |
Process Iterations > Iterations > Build Photon Map > Trace                  | 29.486 |
Process Iterations > Iterations > Build Photon Map > Search                 | 7.706 |
Process Iterations > Iterations > Radiance calc                             | 2.169 |
Process Iterations > Iterations > Update Samples                            | 7.793 |
Process Iterations > Iterations > Update Samples > HP to sample             | 0.964 |
Process Iterations > Iterations > Update Samples > Copy samples RGB         | 2.109 |
Process Iterations > Iterations > Update Samples > Splat to pixel           | 4.151 |
=====================================================================================
GRACEFUL_EXIT
